"id","loc","annee"
"t0001","dg","1959"
"t0002","dg","1960"
"t0003","dg","1961"
"t0004","dg","1962"
"t0005","dg","1963"
"t0006","dg","1964"
"t0007","dg","1965"
"t0008","dg","1966"
"t0009","dg","1967"
"t0010","dg","1968"
"t0011","pompidou","1969"
"t0012","pompidou","1970"
"t0013","pompidou","1971"
"t0014","pompidou","1972"
"t0015","pompidou","1973"
"t0016","giscard","1974"
"t0017","giscard","1975"
"t0018","giscard","1976"
"t0019","giscard","1977"
"t0020","giscard","1978"
"t0021","giscard","1979"
"t0022","giscard","1980"
"t0023","mitterrand","1981"
"t0024","mitterrand","1982"
"t0025","mitterrand","1983"
"t0026","mitterrand","1984"
"t0027","mitterrand","1985"
"t0028","mitterrand","1986"
"t0029","mitterrand","1987"
"t0030","mitterrand","1988"
"t0031","mitterrand","1989"
"t0032","mitterrand","1990"
"t0033","mitterrand","1991"
"t0034","mitterrand","1992"
"t0035","mitterrand","1993"
"t0036","mitterrand","1994"
"t0037","chirac","1995"
"t0038","chirac","1996"
"t0039","chirac","1997"
"t0040","chirac","1998"
"t0041","chirac","1999"
"t0042","chirac","2000"
"t0043","chirac","2001"
"t0044","chirac","2002"
"t0045","chirac","2003"
"t0046","chirac","2004"
"t0047","chirac","2005"
"t0048","chirac","2006"
"t0049","sarkozy","2007"
"t0050","sarkozy","2008"
"t0051","sarkozy","2009"
"t0052","sarkozy","2010"
